ECI 254 - Midterm
…
From the exploratory analysis it was clear that White(s) dominated the number of COVID-19 cases by a ratio of about 1 in 3. The figure below shows a month wise breakdown of the cases for different ethnicities.

\(~\)

#race analysis for each month

race_df<- mydata1 %>% filter(!is.na(race_ethnicity_combined)) %>% mutate(date_by_month= strftime(cdc_case_earliest_dt,'%m'))

race_df1<- race_df%>%filter(!is.na(medcond_yn))%>%filter(!is.na(icu_yn))%>%filter(!is.na(death_yn))%>%filter(!is.na(hosp_yn))

race_df_1<- race_df1 %>% group_by(race_ethnicity_combined, date_by_month)%>%summarize(count=n())%>%mutate(percentage=round(prop.table(count), 2))

race_df_1

## # A tibble: 107 x 4
## # Groups:   race_ethnicity_combined [9]
##    race_ethnicity_combined                     date_by_month count percentage
##    <chr>                                       <chr>         <int>      <dbl>
##  1 American Indian/Alaska Native, Non-Hispanic 01              760       0.1 
##  2 American Indian/Alaska Native, Non-Hispanic 03              193       0.03
##  3 American Indian/Alaska Native, Non-Hispanic 04              497       0.07
##  4 American Indian/Alaska Native, Non-Hispanic 05              498       0.07
##  5 American Indian/Alaska Native, Non-Hispanic 06              500       0.07
##  6 American Indian/Alaska Native, Non-Hispanic 07              693       0.09
##  7 American Indian/Alaska Native, Non-Hispanic 08              621       0.08
##  8 American Indian/Alaska Native, Non-Hispanic 09              554       0.08
##  9 American Indian/Alaska Native, Non-Hispanic 10              817       0.11
## 10 American Indian/Alaska Native, Non-Hispanic 11             1051       0.14
## # ... with 97 more rows

x<-race_df_1$race_ethnicity_combined
race_df_1$race_ethnicity_combined<-gsub("(.*),.*", "\\1", x)
x<-race_df_1$race_ethnicity_combined
race_df_1$race_ethnicity_combined<-gsub("(.*)/.*", "\\1", x)
# removing missing and unknown
race_df_1<-as_tibble(race_df_1)
race_df_1 %>% filter(race_df_1$race_ethnicity_combined %in% 
                     c("American Indian","Asian","Black","Hispanic","Multiple","White"))

## # A tibble: 71 x 4
##    race_ethnicity_combined date_by_month count percentage
##    <chr>                   <chr>         <int>      <dbl>
##  1 American Indian         01              760       0.1 
##  2 American Indian         03              193       0.03
##  3 American Indian         04              497       0.07
##  4 American Indian         05              498       0.07
##  5 American Indian         06              500       0.07
##  6 American Indian         07              693       0.09
##  7 American Indian         08              621       0.08
##  8 American Indian         09              554       0.08
##  9 American Indian         10              817       0.11
## 10 American Indian         11             1051       0.14
## # ... with 61 more rows
…
